{
  "$schema": "http://json-schema.org/draft-07/schema#",
  "$id": "fif-version.json",
  "title": "FIF version schema",
  "type": "string",
  "pattern": "^([*]|((salsa|sid|bookworm)_(testing|standard|smallest-build))|[[:digit:]]{1,3})$"
}
